ROCKYOU.txt

Phase 1----------------------- Selected Data

Total number of Q0:  7368948
Total number of Q1:  4968028
Total number of QE:  2007415
Percent of passwords with more Q1 characters:  51.371633692918714
Percent of passwords with more Q2 characters:  34.6339415873424
Percent of passwords with Equal Q1 and Q1   :  13.994424719738884
Percantage of passwords starting in Quadrant 1              :  55.79925979429869
Percantage of passwords starting in Quadrant 2              :  44.15801270336259
Percantage of passwords ending in Quadrant 1                :  55.95605278746236
Percantage of passwords ending in Quadrant 2                :  43.9887758218526
Percantage of passwords starting and ending in same quadrant:  31.629624429506976
Percantage of passwords starting and ending in diff quadrant:  68.31520417980799



Phase 3 --------------------- Selected data
Total use of quadrant 1:  39916869
Total use of quadrant 2:  31061839
Total use of quadrant 3:  32960646
Total use of quadrant 4:  7160373
Total percent use of quadrant 1:  0.3592886326354339
Total percent use of quadrant 2:  0.27958519646047375
Total percent use of quadrant 3:  0.29667621055450477
Total percent use of quadrant 4:  0.06444996034958754
Total Starting of Quadrant 1:  5002398
Total Starting of Quadrant 2:  4018819
Total Starting of Quadrant 3:  3856153
Total Starting of Quadrant 4:  1464625
Total Percent of Starting of Quadrant 1:  0.3487937347628416
Total Percent of Starting of Quadrant 2:  0.28021338732861084
Total Percent of Starting of Quadrant 3:  0.26887145058968437
Total Percent of Starting of Quadrant 4:  0.10212142731886324
Total Ending of Quadrant 1:  5646204
Total Ending of Quadrant 2:  4087764
Total Ending of Quadrant 3:  3700144
Total Ending of Quadrant 4:  907883
Total Percent of Ending of Quadrant 1:  0.39368330556522996
Total Percent of Ending of Quadrant 2:  0.2850205985987305
Total Percent of Ending of Quadrant 3: 0.25799367521742966
Total Percent of Ending of Quadrant 4:  0.0633024206186099
Total of Quadrant 1 to 1:  14029522
Total of Quadrant 1 to 2:  13056198
Total of Quadrant 1 to 3:  10238530
Total of Quadrant 1 to 4:  2592619
Total of Quadrant 2 to 1:  12623284
Total of Quadrant 2 to 2:  7477346
Total of Quadrant 2 to 3:  9532604
Total of Quadrant 2 to 4:  1428605
Total of Quadrant 3 to 1:  11586610
Total of Quadrant 3 to 2:  8967677
Total of Quadrant 3 to 3:  10747969
Total of Quadrant 3 to 4:  1658390
Total of Quadrant 4 to 1:  2321259
Total of Quadrant 4 to 2:  1629563
Total of Quadrant 4 to 3:  2285534
Total of Quadrant 4 to 4:  924017
Total Percent of Quadrant 1 to 1:  0.35146849819308223
Total Percent of Quadrant 1 to 2:  0.32708472200061584
Total Percent of Quadrant 1 to 3:  0.2564963198892178
Total Percent of Quadrant 1 to 4:  0.06495045991708417
Total Percent of Quadrant 2 to 1:  0.40639203622168024
Total Percent of Quadrant 2 to 2:  0.24072451087007438
Total Percent of Quadrant 2 to 3:  0.30689116636011154
Total Percent of Quadrant 2 to 4:  0.04599228654813387
Total Percent of Quadrant 3 to 1:  0.35152860778274797
Total Percent of Quadrant 3 to 2:  0.27207224639953964
Total Percent of Quadrant 3 to 3:  0.32608490136995494
Total Percent of Quadrant 3 to 4:  0.050314244447757485
Total Percent of Quadrant 4 to 1:  0.3241812961419747
Total Percent of Quadrant 4 to 2:  0.2275807419529681
Total Percent of Quadrant 4 to 3:  0.3191920309179424
Total Percent of Quadrant 4 to 4:  0.12904593098711478
Total Start_End Quadrant 1 to 1:  2004294
Total Start_End Quadrant 1 to 2:  1423310
Total Start_End Quadrant 1 to 3:  1270313
Total Start_End Quadrant 1 to 4:  304481
Total Start_End Quadrant 2 to 1:  1601140
Total Start_End Quadrant 2 to 2:  1157915
Total Start_End Quadrant 2 to 3:  1021577
Total Start_End Quadrant 2 to 4:  238187
Total Start_End Quadrant 3 to 1:  1534894
Total Start_End Quadrant 3 to 2:  1090882
Total Start_End Quadrant 3 to 3:  1002099
Total Start_End Quadrant 3 to 4:  228278
Total Start_End Quadrant 4 to 1:  505876
Total Start_End Quadrant 4 to 2:  415657
Total Start_End Quadrant 4 to 3:  406155
Total Start_End Quadrant 4 to 4:  136937
Total Percent of Start_End Quadrant 1 to 1:  0.40066664027932203
Total Percent of Start_End Quadrant 1 to 2:  0.2845255415502725
Total Percent of Start_End Quadrant 1 to 3:  0.25394080998753
Total Percent of Start_End Quadrant 1 to 4:  0.06086700818287549
Total Percent of Start_End Quadrant 2 to 1:  0.3984105778339358
Total Percent of Start_End Quadrant 2 to 2:  0.2881232023636795
Total Percent of Start_End Quadrant 2 to 3:  0.2541983104986813
Total Percent of Start_End Quadrant 2 to 4:  0.0592679093037034
Total Percent of Start_End Quadrant 3 to 1:  0.398037629730978
Total Percent of Start_End Quadrant 3 to 2:  0.282893858205315
Total Percent of Start_End Quadrant 3 to 3:  0.2598701348208953
Total Percent of Start_End Quadrant 3 to 4:  0.059198377242811684
Total Percent of Start_End Quadrant 4 to 1:  0.34539626184176836
Total Percent of Start_End Quadrant 4 to 2:  0.28379755910215926
Total Percent of Start_End Quadrant 4 to 3:  0.2773098916104805
Total Percent of Start_End Quadrant 4 to 4:  0.09349628744559188
Avg use of quadrant 1:  2.7827510418532233
Avg use of quadrant 2:  2.1654344893415134
Total amount of quadrant 1 in part 1:  8473782
Total amount of quadrant 2 in part 1:  6238906
Total amount of quadrant 3 in part 1:  7144747
Total amount of quadrant 4 in part 1:  1848166
Total amount of quadrant 1 in part 2:  8463450
Total amount of quadrant 2 in part 2:  6612151
Total amount of quadrant 3 in part 2:  7534168
Total amount of quadrant 4 in part 2:  1095832
Total amount of quadrant 1 in part 3:  8458597
Total amount of quadrant 2 in part 3:  7024542
Total amount of quadrant 3 in part 3:  6771327
Total amount of quadrant 4 in part 3:  1451135
Total amount of quadrant 1 in part 4:  20166840
Total amount of quadrant 2 in part 4:  15273664
Total amount of quadrant 3 in part 4:  15210124
Total amount of quadrant 4 in part 4:  3671372
Total % amount of quadrant 1 in part 1:  0.35745906631939006
Total % amount of quadrant 2 in part 1:  0.26318278114948446
Total % amount of quadrant 3 in part 1:  0.3013948897562226
Total % amount of quadrant 4 in part 1:  0.07796326277490286
Total % amount of quadrant 1 in part 2:  0.35702321995548647
Total % amount of quadrant 2 in part 2:  0.27892779432168796
Total % amount of quadrant 3 in part 2:  0.31782227331000806
Total % amount of quadrant 4 in part 2:  0.04622671241281755
Total % amount of quadrant 1 in part 3:  0.35681850040418717
Total % amount of quadrant 2 in part 3:  0.2963241471920497
Total % amount of quadrant 3 in part 3:  0.2856424943624083
Total % amount of quadrant 4 in part 3:  0.06121485804135487
Total % amount of quadrant 1 in part 4:  0.371246272228563
Total % amount of quadrant 2 in part 4:  0.2811690291226391
Total % amount of quadrant 3 in part 4:  0.27999933728507787
Total % amount of quadrant 4 in part 4:  0.06758536136372004

Phase 4 ---------------- Selected dataTotal use of quadrant 1:  37929290
Total use of quadrant 2:  29453591
Total use of quadrant 3:  31233300
Total use of quadrant 4:  6793980
Total use of quadrant 5:  1987579
Total use of quadrant 6:  1608248
Total use of quadrant 7:  1727346
Total use of quadrant 8:  366393
Total percent use of quadrant 1:  0.3413985886751999
Total percent use of quadrant 2:  0.2651094813221278
Total percent use of quadrant 3:  0.2811285035830916
Total percent use of quadrant 4:  0.06115208545921989
Total percent use of quadrant 5:  0.017890043960234032
Total percent use of quadrant 6:  0.01447571513834593
Total percent use of quadrant 7:  0.01554770697141317
Total percent use of quadrant 8:  0.0032978748903676426
Total Starting of Quadrant 1:  4584597
Total Starting of Quadrant 2:  3641017
Total Starting of Quadrant 3:  3474705
Total Starting of Quadrant 4:  1399924
Total Starting of Quadrant 5:  417801
Total Starting of Quadrant 6:  377802
Total Starting of Quadrant 7:  381448
Total Starting of Quadrant 8:  64701
Total Percent of Starting of Quadrant 1:  0.3196624319001645
Total Percent of Starting of Quadrant 2:  0.25387102700844616
Total Percent of Starting of Quadrant 3:  0.24227487180130797
Total Percent of Starting of Quadrant 4:  0.09761013025035917
Total Percent of Starting of Quadrant 5:  0.029131302862677056
Total Percent of Starting of Quadrant 6:  0.026342360320164664
Total Percent of Starting of Quadrant 7:  0.026596578788376374
Total Percent of Starting of Quadrant 8:  0.004511297068504068
Total Ending of Quadrant 1:  5367940
Total Ending of Quadrant 2:  3955534
Total Ending of Quadrant 3:  3560349
Total Ending of Quadrant 4:  860303
Total Ending of Quadrant 5:  278264
Total Ending of Quadrant 6:  132230
Total Ending of Quadrant 7:  139795
Total Ending of Quadrant 8:  47580
Total Percent of Ending of Quadrant 1:  0.3742812628229197
Total Percent of Ending of Quadrant 2:  0.27580082129438754
Total Percent of Ending of Quadrant 3: 0.24824642596793542
Total Percent of Ending of Quadrant 4:  0.05998489052603909
Total Percent of Ending of Quadrant 5:  0.019402042742310256
Total Percent of Ending of Quadrant 6:  0.009219777304342945
Total Percent of Ending of Quadrant 7:  0.00974724924949423
Total Percent of Ending of Quadrant 8:  0.0033175300925708034
Total of Quadrant 1 to 1:  13163431
Total of Quadrant 1 to 2:  12304884
Total of Quadrant 1 to 3:  9654751
Total of Quadrant 1 to 4:  2428943
Total of Quadrant 1 to 5:  139109
Total of Quadrant 1 to 6:  61366
Total of Quadrant 1 to 7:  79511
Total of Quadrant 1 to 8:  97295
Total of Quadrant 2 to 1:  11813630
Total of Quadrant 2 to 2:  7083591
Total of Quadrant 2 to 3:  8936848
Total of Quadrant 2 to 4:  1309820
Total of Quadrant 2 to 5:  116206
Total of Quadrant 2 to 6:  45910
Total of Quadrant 2 to 7:  68691
Total of Quadrant 2 to 8:  78895
Total of Quadrant 3 to 1:  10850731
Total of Quadrant 3 to 2:  8497858
Total of Quadrant 3 to 3:  10108109
Total of Quadrant 3 to 4:  1536994
Total of Quadrant 3 to 1:  83690
Total of Quadrant 3 to 2:  39221
Total of Quadrant 3 to 3:  55867
Total of Quadrant 3 to 4:  60830
Total of Quadrant 4 to 1:  2159069
Total of Quadrant 4 to 2:  1536099
Total of Quadrant 4 to 3:  2172332
Total of Quadrant 4 to 4:  865528
Total of Quadrant 4 to 5:  16510
Total of Quadrant 4 to 6:  14265
Total of Quadrant 4 to 7:  14757
Total of Quadrant 4 to 8:  15420
Total of Quadrant 5 to 1:  245666
Total of Quadrant 5 to 2:  148011
Total of Quadrant 5 to 3:  131965
Total of Quadrant 5 to 4:  36740
Total of Quadrant 5 to 5:  481316
Total of Quadrant 5 to 6:  541937
Total of Quadrant 5 to 7:  372303
Total of Quadrant 5 to 8:  29641
Total of Quadrant 6 to 1:  189701
Total of Quadrant 6 to 2:  72270
Total of Quadrant 6 to 3:  131623
Total of Quadrant 6 to 4:  26332
Total of Quadrant 6 to 5:  503747
Total of Quadrant 6 to 6:  275575
Total of Quadrant 6 to 7:  395442
Total of Quadrant 6 to 8:  13558
Total of Quadrant 7 to 1:  184446
Total of Quadrant 7 to 2:  66802
Total of Quadrant 7 to 3:  123594
Total of Quadrant 7 to 4:  26479
Total of Quadrant 7 to 5:  467743
Total of Quadrant 7 to 6:  363796
Total of Quadrant 7 to 7:  460399
Total of Quadrant 7 to 8:  34087
Total of Quadrant 8 to 1:  105959
Total of Quadrant 8 to 2:  58593
Total of Quadrant 8 to 3:  59722
Total of Quadrant 8 to 4:  23523
Total of Quadrant 8 to 5:  39721
Total of Quadrant 8 to 6:  20606
Total of Quadrant 8 to 7:  38723
Total of Quadrant 8 to 8:  19546
Total Percent of Quadrant 1 to 1:  0.3470518694127942
Total Percent of Quadrant 1 to 2:  0.3244164074782312
Total Percent of Quadrant 1 to 3:  0.2545460513497616
Total Percent of Quadrant 1 to 4:  0.064038715198729
Total Percent of Quadrant 1 to 5:  0.0036675877666046477
Total Percent of Quadrant 1 to 6:  0.0016179053180273083
Total Percent of Quadrant 1 to 7:  0.0020962955014449257
Total Percent of Quadrant 1 to 8:  0.0025651679744071137
Total Percent of Quadrant 2 to 1:  0.4010930280114231
Total Percent of Quadrant 2 to 2:  0.24050008027883596
Total Percent of Quadrant 2 to 3:  0.3034213383352814
Total Percent of Quadrant 2 to 4:  0.044470638571711
Total Percent of Quadrant 2 to 5:  0.00394539327988903
Total Percent of Quadrant 2 to 6:  0.0015587233488779009
Total Percent of Quadrant 2 to 7:  0.0023321774244777146
Total Percent of Quadrant 2 to 8:  0.002678620749503855
Total Percent of Quadrant 3 to 1:  0.34740904739492784
Total Percent of Quadrant 3 to 2:  0.2720768538707085
Total Percent of Quadrant 3 to 3:  0.323632437174426
Total Percent of Quadrant 3 to 4:  0.04921010588058258
Total Percent of Quadrant 3 to 5:  0.0026795119311760203
Total Percent of Quadrant 3 to 6:  0.001255743069096125
Total Percent of Quadrant 3 to 7:  0.0017886998812165222
Total Percent of Quadrant 3 to 8:  0.0019476007978663798
Total Percent of Quadrant 4 to 1:  0.31779148599201057
Total Percent of Quadrant 4 to 2:  0.22609707417448976
Total Percent of Quadrant 4 to 3:  0.31974365541258587
Total Percent of Quadrant 4 to 4:  0.1273963126179353
Total Percent of Quadrant 4 to 5:  0.002430092523086615
Total Percent of Quadrant 4 to 6:  0.0020996529280333472
Total Percent of Quadrant 4 to 7:  0.0021720699795995868
Total Percent of Quadrant 4 to 8:  0.0022696563722589703
Total Percent of Quadrant 5 to 1:  0.03615936461396707
Total Percent of Quadrant 5 to 2:  0.02178561020197292
Total Percent of Quadrant 5 to 3:  0.019423813434834958
Total Percent of Quadrant 5 to 4:  0.005407728606796017
Total Percent of Quadrant 5 to 5:  0.07084448290987021
Total Percent of Quadrant 5 to 6:  0.07976723511108363
Total Percent of Quadrant 5 to 7:  0.05479895436842617
Total Percent of Quadrant 5 to 8:  0.004362832978607532
Total Percent of Quadrant 6 to 1:  0.027921924998307326
Total Percent of Quadrant 6 to 2:  0.010637358367260428
Total Percent of Quadrant 6 to 3:  0.019373474752648667
Total Percent of Quadrant 6 to 4:  0.003875784150085811
Total Percent of Quadrant 6 to 5:  0.07414608226694809
Total Percent of Quadrant 6 to 6:  0.040561644279200115
Total Percent of Quadrant 6 to 7:  0.05820476362897742
Total Percent of Quadrant 6 to 8:  0.0019955902136891777
Total Percent of Quadrant 7 to 1:  0.02714844612436304
Total Percent of Quadrant 7 to 2:  0.00983252820879661
Total Percent of Quadrant 7 to 3:  0.018191693234304487
Total Percent of Quadrant 7 to 4:  0.0038974209520781632
Total Percent of Quadrant 7 to 5:  0.06884668485924303
Total Percent of Quadrant 7 to 6:  0.05354681644632454
Total Percent of Quadrant 7 to 7:  0.06776572789440063
Total Percent of Quadrant 7 to 8:  0.005017235847029282
Total Percent of Quadrant 8 to 1:  0.015596012940868239
Total Percent of Quadrant 8 to 2:  0.008624252647196488
Total Percent of Quadrant 8 to 3:  0.008790429174062921
Total Percent of Quadrant 8 to 4:  0.0034623298861639275
Total Percent of Quadrant 8 to 5:  0.005846499400940244
Total Percent of Quadrant 8 to 6:  0.003032979196288479
Total Percent of Quadrant 8 to 7:  0.00569960464999897
Total Percent of Quadrant 8 to 8:  0.0028769587193368247
Total Start_End Quadrant 1 to 1:  1769504
Total Start_End Quadrant 1 to 2:  1293664
Total Start_End Quadrant 1 to 3:  1152355
Total Start_End Quadrant 1 to 4:  271411
Total Start_End Quadrant 1 to 5:  47367
Total Start_End Quadrant 1 to 6:  16829
Total Start_End Quadrant 1 to 7:  21461
Total Start_End Quadrant 1 to 8:  12006
Total Start_End Quadrant 2 to 1:  1404148
Total Start_End Quadrant 2 to 2:  1042225
Total Start_End Quadrant 2 to 3:  919899
Total Start_End Quadrant 2 to 4:  210791
Total Start_End Quadrant 2 to 5:  33750
Total Start_End Quadrant 2 to 6:  8906
Total Start_End Quadrant 2 to 7:  12958
Total Start_End Quadrant 2 to 8:  8340
Total Start_End Quadrant 3 to 1:  1344359
Total Start_End Quadrant 3 to 2:  983371
Total Start_End Quadrant 3 to 3:  889411
Total Start_End Quadrant 3 to 4:  196727
Total Start_End Quadrant 3 to 1:  32514
Total Start_End Quadrant 3 to 2:  7994
Total Start_End Quadrant 3 to 3:  12405
Total Start_End Quadrant 3 to 4:  7924
Total Start_End Quadrant 4 to 1:  471753
Total Start_End Quadrant 4 to 2:  396877
Total Start_End Quadrant 4 to 3:  386824
Total Start_End Quadrant 4 to 4:  127242
Total Start_End Quadrant 4 to 5:  7427
Total Start_End Quadrant 4 to 6:  3065
Total Start_End Quadrant 4 to 7:  4361
Total Start_End Quadrant 4 to 8:  2375
Total Start_End Quadrant 5 to 1:  128671
Total Start_End Quadrant 5 to 2:  81819
Total Start_End Quadrant 5 to 3:  71494
Total Start_End Quadrant 5 to 4:  18224
Total Start_End Quadrant 5 to 5:  58752
Total Start_End Quadrant 5 to 6:  30998
Total Start_End Quadrant 5 to 7:  25003
Total Start_End Quadrant 5 to 8:  2840
Total Start_End Quadrant 6 to 1:  117908
Total Start_End Quadrant 6 to 2:  74520
Total Start_End Quadrant 6 to 3:  66016
Total Start_End Quadrant 6 to 4:  16833
Total Start_End Quadrant 6 to 5:  45334
Total Start_End Quadrant 6 to 6:  32264
Total Start_End Quadrant 6 to 7:  22704
Total Start_End Quadrant 6 to 8:  2223
Total Start_End Quadrant 7 to 1:  112557
Total Start_End Quadrant 7 to 2:  71495
Total Start_End Quadrant 7 to 3:  63427
Total Start_End Quadrant 7 to 4:  16086
Total Start_End Quadrant 7 to 5:  45464
Total Start_End Quadrant 7 to 6:  28022
Total Start_End Quadrant 7 to 7:  36856
Total Start_End Quadrant 7 to 8:  7541
Total Start_End Quadrant 8 to 1:  19040
Total Start_End Quadrant 8 to 2:  11563
Total Start_End Quadrant 8 to 3:  10923
Total Start_End Quadrant 8 to 4:  2989
Total Start_End Quadrant 8 to 5:  7656
Total Start_End Quadrant 8 to 6:  4152
Total Start_End Quadrant 8 to 7:  4047
Total Start_End Quadrant 8 to 8:  4331
Total Percent of Start_End Quadrant 1 to 1:  0.3859671853382097
Total Percent of Start_End Quadrant 1 to 2:  0.28217616510240706
Total Percent of Start_End Quadrant 1 to 3:  0.2513536086159809
Total Percent of Start_End Quadrant 1 to 4:  0.059200623304512916
Total Percent of Start_End Quadrant 1 to 5:  0.010331769619009043
Total Percent of Start_End Quadrant 1 to 6:  0.003670769753590119
Total Percent of Start_End Quadrant 1 to 7:  0.00468110937558961
Total Percent of Start_End Quadrant 1 to 8:  0.002618768890700753
Total Percent of Start_End Quadrant 2 to 1:  0.3856471969232772
Total Percent of Start_End Quadrant 2 to 2:  0.28624557369548126
Total Percent of Start_End Quadrant 2 to 3:  0.2526489164977807
Total Percent of Start_End Quadrant 2 to 4:  0.05789344021189684
Total Percent of Start_End Quadrant 2 to 5:  0.009269388195660718
Total Percent of Start_End Quadrant 2 to 6:  0.0024460198894979066
Total Percent of Start_End Quadrant 2 to 7:  0.003558895770055454
Total Percent of Start_End Quadrant 2 to 8:  0.0022905688163499375
Total Percent of Start_End Quadrant 3 to 1:  0.3868987439221459
Total Percent of Start_End Quadrant 3 to 2:  0.2830084856124477
Total Percent of Start_End Quadrant 3 to 3:  0.255967341112411
Total Percent of Start_End Quadrant 3 to 4:  0.05661689265707449
Total Percent of Start_End Quadrant 3 to 5:  0.009357341126800693
Total Percent of Start_End Quadrant 3 to 6:  0.002300626959698737
Total Percent of Start_End Quadrant 3 to 7:  0.0035700872448164666
Total Percent of Start_End Quadrant 3 to 8:  0.0022804813646050527
Total Percent of Start_End Quadrant 4 to 1:  0.33698472202776725
Total Percent of Start_End Quadrant 4 to 2:  0.2834989613721888
Total Percent of Start_End Quadrant 4 to 3:  0.27631785725510816
Total Percent of Start_End Quadrant 4 to 4:  0.09089207699846563
Total Percent of Start_End Quadrant 4 to 5:  0.005305288001348644
Total Percent of Start_End Quadrant 4 to 6:  0.002189404567676531
Total Percent of Start_End Quadrant 4 to 7:  0.0031151691091802127
Total Percent of Start_End Quadrant 4 to 8:  0.0016965206682648486
Total Percent of Start_End Quadrant 5 to 1:  0.09191284669739215
Total Percent of Start_End Quadrant 5 to 2:  0.05844531560284701
Total Percent of Start_End Quadrant 5 to 3:  0.0510699152239693
Total Percent of Start_End Quadrant 5 to 4:  0.013017849540403623
Total Percent of Start_End Quadrant 5 to 5:  0.0419679925481669
Total Percent of Start_End Quadrant 5 to 6:  0.022142630599946853
Total Percent of Start_End Quadrant 5 to 7:  0.017860255271000425
Total Percent of Start_End Quadrant 5 to 8:  0.0020286815569988087
Total Percent of Start_End Quadrant 6 to 1:  0.0842245721910618
Total Percent of Start_End Quadrant 6 to 2:  0.0532314611364617
Total Percent of Start_End Quadrant 6 to 3:  0.04715684565733568
Total Percent of Start_End Quadrant 6 to 4:  0.012024224172169347
Total Percent of Start_End Quadrant 6 to 5:  0.03238318651583943
Total Percent of Start_End Quadrant 6 to 6:  0.023046965406693508
Total Percent of Start_End Quadrant 6 to 7:  0.016218023264120054
Total Percent of Start_End Quadrant 6 to 8:  0.0015879433454958982
Total Percent of Start_End Quadrant 7 to 1:  0.0804022218348996
Total Percent of Start_End Quadrant 7 to 2:  0.0510706295484612
Total Percent of Start_End Quadrant 7 to 3:  0.045307459547804026
Total Percent of Start_End Quadrant 7 to 4:  0.011490623776719307
Total Percent of Start_End Quadrant 7 to 5:  0.03247604869978656
Total Percent of Start_End Quadrant 7 to 6:  0.02001680091204951
Total Percent of Start_End Quadrant 7 to 7:  0.02632714347350285
Total Percent of Start_End Quadrant 7 to 8:  0.005386720993425357
Total Percent of Start_End Quadrant 8 to 1:  0.01360073832579483
Total Percent of Start_End Quadrant 8 to 2:  0.008259734099851136
Total Percent of Start_End Quadrant 8 to 3:  0.007802566425034502
Total Percent of Start_End Quadrant 8 to 4:  0.0021351159062920557
Total Percent of Start_End Quadrant 8 to 5:  0.0054688683099939715
Total Percent of Start_End Quadrant 8 to 6:  0.002965875290372906
Total Percent of Start_End Quadrant 8 to 7:  0.002890871218723302
Total Percent of Start_End Quadrant 8 to 8:  0.003093739374423183
Total amount of quadrant 1 in part 1:  7880477
Total amount of quadrant 2 in part 1:  5757489
Total amount of quadrant 3 in part 1:  6593905
Total amount of quadrant 4 in part 1:  1765101
Total amount of quadrant 5 in part 1:  593305
Total amount of quadrant 6 in part 1:  481417
Total amount of quadrant 7 in part 1:  550842
Total amount of quadrant 8 in part 1:  83065
Total amount of quadrant 1 in part 2:  8043801
Total amount of quadrant 2 in part 2:  6284458
Total amount of quadrant 3 in part 2:  7154856
Total amount of quadrant 4 in part 2:  1028651
Total amount of quadrant 5 in part 2:  419649
Total amount of quadrant 6 in part 2:  327693
Total amount of quadrant 7 in part 2:  379312
Total amount of quadrant 8 in part 2:  67181
Total amount of quadrant 1 in part 3:  8081569
Total amount of quadrant 2 in part 3:  6693044
Total amount of quadrant 3 in part 3:  6456410
Total amount of quadrant 4 in part 3:  1372600
Total amount of quadrant 5 in part 3:  377028
Total amount of quadrant 6 in part 3:  331498
Total amount of quadrant 7 in part 3:  314917
Total amount of quadrant 8 in part 3:  78535
Total amount of quadrant 1 in part 4:  19291018
Total amount of quadrant 2 in part 4:  14673840
Total amount of quadrant 3 in part 4:  14588120
Total amount of quadrant 4 in part 4:  3486253
Total amount of quadrant 5 in part 4:  875822
Total amount of quadrant 6 in part 4:  599824
Total amount of quadrant 7 in part 4:  622004
Total amount of quadrant 8 in part 4:  185119
Total % amount of quadrant 1 in part 1:  0.332431014931872
Total % amount of quadrant 2 in part 1:  0.24287462697106899
Total % amount of quadrant 3 in part 1:  0.27815810280448067
Total % amount of quadrant 4 in part 1:  0.0744592385571663
Total % amount of quadrant 5 in part 1:  0.02502805138751808
Total % amount of quadrant 6 in part 1:  0.020308154178415472
Total % amount of quadrant 7 in part 1:  0.02323678695174191
Total % amount of quadrant 8 in part 1:  0.0035040242177365594
Total % amount of quadrant 1 in part 2:  0.33932069471683085
Total % amount of quadrant 2 in part 2:  0.2651043523427227
Total % amount of quadrant 3 in part 2:  0.30182132906058784
Total % amount of quadrant 4 in part 2:  0.04339274081260374
Total % amount of quadrant 5 in part 2:  0.017702525238655623
Total % amount of quadrant 6 in part 2:  0.013823441978965224
Total % amount of quadrant 7 in part 2:  0.01600094424942021
Total % amount of quadrant 8 in part 2:  0.002833971600213806
Total % amount of quadrant 1 in part 3:  0.34091390469281924
Total % amount of quadrant 2 in part 3:  0.2823401946232032
Total % amount of quadrant 3 in part 3:  0.2723579967451574
Total % amount of quadrant 4 in part 3:  0.05790192790303018
Total % amount of quadrant 5 in part 3:  0.015904595711367958
Total % amount of quadrant 6 in part 3:  0.013983952568846493
Total % amount of quadrant 7 in part 3:  0.013284497617250876
Total % amount of quadrant 8 in part 3:  0.0033129301383246937
Total % amount of quadrant 1 in part 4:  0.3551234858804904
Total % amount of quadrant 2 in part 4:  0.27012702036007513
Total % amount of quadrant 3 in part 4:  0.26854902249548984
Total % amount of quadrant 4 in part 4:  0.0641775523728876
Total % amount of quadrant 5 in part 4:  0.016122786348072606
Total % amount of quadrant 6 in part 4:  0.011042008762563971
Total % amount of quadrant 7 in part 4:  0.011450314789588013
Total % amount of quadrant 8 in part 4:  0.0034078089908324435

Phase 5 ------------------------- Selected Data
Total occurences of distance  1 :  19456395
Total occurences of distance  8 :  4638973
Total occurences of distance  0 :  6856096
Total occurences of distance  7 :  7256822
Total occurences of distance  5 :  10736099
Total occurences of distance  2 :  24297905
Total occurences of distance  3 :  14610142
Total occurences of distance  6 :  9251625
Total occurences of distance  4 :  11981165
Total occurences of distance  9 :  1635112
Total occurences of distance  10 :  118839
Total occurences of distance  11 :  52911
Total occurences of distance  12 :  705
Total occurences of distance  13 :  16
Total percentage use of distance  1 :  0.1754522757360137
Total percentage use of distance  8 :  0.041832948494719746
Total percentage use of distance  0 :  0.061826337605942965
Total percentage use of distance  7 :  0.06543997151122655
Total percentage use of distance  5 :  0.09681510896942322
Total percentage use of distance  2 :  0.21911164570145014
Total percentage use of distance  3 :  0.1317501347359732
Total percentage use of distance  6 :  0.08342854164433842
Total percentage use of distance  4 :  0.10804276255794955
Total percentage use of distance  9 :  0.014744978269780442
Total percentage use of distance  10 :  0.0010716565425502582
Total percentage use of distance  11 :  0.00047713645623807604
Total percentage use of distance  12 :  6.357490912056919e-06
Total percentage use of distance  13 :  1.4428348169207192e-07


Phase 6 ----------- Selected Data
occurrences of password length  6 :  1947798
occurrences of password length  5 :  259169
occurrences of password length  9 :  2191039
occurrences of password length  8 :  2966037
occurrences of password length  7 :  2506271
occurrences of password length  10 :  2013695
occurrences of password length  11 :  866035
occurrences of password length  4 :  17899
occurrences of password length  13 :  364174
occurrences of password length  12 :  555350
occurrences of password length  16 :  118406
occurrences of password length  17 :  36884
occurrences of password length  15 :  161213
occurrences of password length  3 :  2461
occurrences of password length  14 :  248527
occurrences of password length  0 :  1
occurrences of password length  2 :  335
occurrences of password length  18 :  23769
occurrences of password length  39 :  118
occurrences of password length  26 :  2249
occurrences of password length  20 :  13069
occurrences of password length  1 :  45
occurrences of password length  22 :  6156
occurrences of password length  19 :  15567
occurrences of password length  21 :  7850
occurrences of password length  23 :  4849
occurrences of password length  24 :  4237
occurrences of password length  38 :  67
occurrences of password length  28 :  1198
occurrences of password length  30 :  992
occurrences of password length  40 :  55
occurrences of password length  27 :  1811
occurrences of password length  35 :  131
occurrences of password length  34 :  193
occurrences of password length  32 :  407
occurrences of password length  42 :  81
occurrences of password length  43 :  43
occurrences of password length  37 :  81
occurrences of password length  49 :  18
occurrences of password length  33 :  296
occurrences of password length  59 :  9
occurrences of password length  25 :  2950
occurrences of password length  44 :  31
occurrences of password length  36 :  188
occurrences of password length  29 :  785
occurrences of password length  31 :  469
occurrences of password length  41 :  46
occurrences of password length  53 :  16
occurrences of password length  48 :  40
occurrences of password length  77 :  4
occurrences of password length  47 :  23
occurrences of password length  45 :  56
occurrences of password length  165 :  3
occurrences of password length  50 :  26
occurrences of password length  101 :  6
occurrences of password length  150 :  4
occurrences of password length  149 :  1
occurrences of password length  137 :  1
occurrences of password length  222 :  15
occurrences of password length  255 :  476
occurrences of password length  80 :  7
occurrences of password length  71 :  45
occurrences of password length  61 :  21
occurrences of password length  58 :  18
occurrences of password length  57 :  17
occurrences of password length  52 :  16
occurrences of password length  63 :  16
occurrences of password length  95 :  3
occurrences of password length  67 :  12
occurrences of password length  51 :  22
occurrences of password length  64 :  17
occurrences of password length  60 :  20
occurrences of password length  55 :  28
occurrences of password length  85 :  4
occurrences of password length  78 :  5
occurrences of password length  66 :  12
occurrences of password length  54 :  27
occurrences of password length  84 :  9
occurrences of password length  70 :  16
occurrences of password length  73 :  7
occurrences of password length  109 :  2
occurrences of password length  81 :  6
occurrences of password length  69 :  23
occurrences of password length  56 :  17
occurrences of password length  72 :  8
occurrences of password length  65 :  7
occurrences of password length  46 :  25
occurrences of password length  68 :  8
occurrences of password length  75 :  11
occurrences of password length  88 :  4
occurrences of password length  62 :  8
occurrences of password length  79 :  6
occurrences of password length  74 :  12
occurrences of password length  123 :  2
occurrences of password length  252 :  1
occurrences of password length  87 :  5
occurrences of password length  197 :  2
occurrences of password length  93 :  1
occurrences of password length  89 :  1
occurrences of password length  100 :  1
occurrences of password length  118 :  1
occurrences of password length  195 :  2
occurrences of password length  184 :  1
occurrences of password length  97 :  1
occurrences of password length  92 :  2
occurrences of password length  104 :  2
occurrences of password length  98 :  2
occurrences of password length  188 :  3
occurrences of password length  142 :  3
occurrences of password length  208 :  2
occurrences of password length  230 :  1
occurrences of password length  228 :  2
occurrences of password length  90 :  2
occurrences of password length  76 :  6
occurrences of password length  82 :  4
occurrences of password length  103 :  2
occurrences of password length  189 :  1
occurrences of password length  115 :  1
occurrences of password length  153 :  1
occurrences of password length  138 :  1
occurrences of password length  162 :  1
occurrences of password length  117 :  4
occurrences of password length  124 :  2
occurrences of password length  96 :  4
occurrences of password length  91 :  3
occurrences of password length  102 :  2
occurrences of password length  83 :  3
occurrences of password length  210 :  5
occurrences of password length  224 :  3
occurrences of password length  171 :  1
occurrences of password length  126 :  1
occurrences of password length  125 :  3
occurrences of password length  218 :  2
occurrences of password length  134 :  2
occurrences of password length  190 :  2
occurrences of password length  132 :  1
occurrences of password length  111 :  2
occurrences of password length  200 :  1
occurrences of password length  192 :  1
occurrences of password length  99 :  1
occurrences of password length  94 :  3
occurrences of password length  243 :  3
occurrences of password length  176 :  1
occurrences of password length  148 :  1
occurrences of password length  151 :  1
occurrences of password length  249 :  2
occurrences of password length  239 :  2
occurrences of password length  86 :  1
occurrences of password length  170 :  1
occurrences of password length  105 :  1
occurrences of password length  154 :  2
occurrences of password length  129 :  4
occurrences of password length  145 :  1
occurrences of password length  106 :  1
occurrences of password length  178 :  2
occurrences of password length  141 :  1
occurrences of password length  231 :  1
occurrences of password length  219 :  5
occurrences of password length  221 :  4
occurrences of password length  257 :  2
occurrences of password length  262 :  2
occurrences of password length  258 :  1
occurrences of password length  113 :  2
occurrences of password length  204 :  1
occurrences of password length  207 :  2
occurrences of password length  254 :  2
occurrences of password length  209 :  1
occurrences of password length  241 :  2
occurrences of password length  220 :  3
occurrences of password length  217 :  2
occurrences of password length  172 :  1
occurrences of password length  246 :  6
occurrences of password length  226 :  2
occurrences of password length  194 :  2
occurrences of password length  266 :  1
occurrences of password length  285 :  1
occurrences of password length  244 :  1
occurrences of password length  202 :  1
occurrences of password length  232 :  3
occurrences of password length  216 :  2
occurrences of password length  173 :  2
occurrences of password length  213 :  1
occurrences of password length  174 :  1
occurrences of password length  238 :  2
occurrences of password length  240 :  1
occurrences of password length  234 :  1
occurrences of password length  225 :  2
occurrences of password length  237 :  2
occurrences of password length  233 :  1
occurrences of password length  211 :  1
occurrences of password length  206 :  1
occurrences of password length  203 :  1
occurrences of password length  248 :  1
occurrences of password length  242 :  1
occurrences of password length  245 :  1
occurrences of password length  251 :  1
occurrences of password length  182 :  2
occurrences of password length  168 :  1
occurrences of password length  175 :  1
occurrences of password length  108 :  3
occurrences of password length  146 :  3
occurrences of password length  131 :  1
occurrences of password length  133 :  1
occurrences of password length  198 :  1
percentage use of password length  6 :  0.1357881279170374
percentage use of password length  5 :  0.018067619601278298
percentage use of password length  9 :  0.15274534833859452
percentage use of password length  8 :  0.20677329556897883
percentage use of password length  7 :  0.17472132487186107
percentage use of password length  10 :  0.1403820489834668
percentage use of password length  11 :  0.06037446971432946
percentage use of password length  4 :  0.0012478048039822674
percentage use of password length  13 :  0.025387902490945764
percentage use of password length  12 :  0.03871548119400817
percentage use of password length  16 :  0.008254515650054436
percentage use of password length  17 :  0.002571318642945525
percentage use of password length  15 :  0.011238748302385231
percentage use of password length  3 :  0.00017156531776078886
percentage use of password length  14 :  0.017325726829392755
percentage use of password length  0 :  6.971366020348999e-08
percentage use of password length  2 :  2.3354076168169147e-05
percentage use of password length  18 :  0.0016570239893767536
percentage use of password length  39 :  8.22621190401182e-06
percentage use of password length  26 :  0.00015678602179764899
percentage use of password length  20 :  0.0009110878251994107
percentage use of password length  1 :  3.1371147091570495e-06
percentage use of password length  22 :  0.0004291572922126844
percentage use of password length  19 :  0.0010852325483877287
percentage use of password length  21 :  0.0005472522325973964
percentage use of password length  23 :  0.00033804153832672296
percentage use of password length  24 :  0.0002953767782821871
percentage use of password length  38 :  4.67081523363383e-06
percentage use of password length  28 :  8.3516964923781e-05
percentage use of password length  30 :  6.915595092186207e-05
percentage use of password length  40 :  3.8342513111919495e-06
percentage use of password length  27 :  0.00012625143862852038
percentage use of password length  35 :  9.132489486657189e-06
percentage use of password length  34 :  1.3454736419273569e-05
percentage use of password length  32 :  2.8373459702820428e-05
percentage use of password length  42 :  5.646806476482689e-06
percentage use of password length  43 :  2.99768738875007e-06
percentage use of password length  37 :  5.646806476482689e-06
percentage use of password length  49 :  1.25484588366282e-06
percentage use of password length  33 :  2.0635243420233038e-05
percentage use of password length  59 :  6.2742294183141e-07
percentage use of password length  25 :  0.00020565529760029546
percentage use of password length  44 :  2.1611234663081897e-06
percentage use of password length  36 :  1.3106168118256119e-05
percentage use of password length  29 :  5.472522325973964e-05
percentage use of password length  31 :  3.269570663543681e-05
percentage use of password length  41 :  3.2068283693605394e-06
percentage use of password length  53 :  1.1154185632558398e-06
percentage use of password length  48 :  2.7885464081395998e-06
percentage use of password length  77 :  2.7885464081395995e-07
percentage use of password length  47 :  1.6034141846802697e-06
percentage use of password length  45 :  3.903964971395439e-06
percentage use of password length  165 :  2.0914098061046997e-07
percentage use of password length  50 :  1.8125551652907397e-06
percentage use of password length  101 :  4.1828196122093995e-07
percentage use of password length  150 :  2.7885464081395995e-07
percentage use of password length  149 :  6.971366020348999e-08
percentage use of password length  137 :  6.971366020348999e-08
percentage use of password length  222 :  1.04570490305235e-06
percentage use of password length  255 :  3.3183702256861234e-05
percentage use of password length  80 :  4.879956214244299e-07
percentage use of password length  71 :  3.1371147091570495e-06
percentage use of password length  61 :  1.4639868642732898e-06
percentage use of password length  58 :  1.25484588366282e-06
percentage use of password length  57 :  1.1851322234593299e-06
percentage use of password length  52 :  1.1154185632558398e-06
percentage use of password length  63 :  1.1154185632558398e-06
percentage use of password length  95 :  2.0914098061046997e-07
percentage use of password length  67 :  8.365639224418799e-07
percentage use of password length  51 :  1.5337005244767798e-06
percentage use of password length  64 :  1.1851322234593299e-06
percentage use of password length  60 :  1.3942732040697999e-06
percentage use of password length  55 :  1.9519824856977197e-06
percentage use of password length  85 :  2.7885464081395995e-07
percentage use of password length  78 :  3.4856830101744997e-07
percentage use of password length  66 :  8.365639224418799e-07
percentage use of password length  54 :  1.8822688254942298e-06
percentage use of password length  84 :  6.2742294183141e-07
percentage use of password length  70 :  1.1154185632558398e-06
percentage use of password length  73 :  4.879956214244299e-07
percentage use of password length  109 :  1.3942732040697997e-07
percentage use of password length  81 :  4.1828196122093995e-07
percentage use of password length  69 :  1.6034141846802697e-06
percentage use of password length  56 :  1.1851322234593299e-06
percentage use of password length  72 :  5.577092816279199e-07
percentage use of password length  65 :  4.879956214244299e-07
percentage use of password length  46 :  1.7428415050872499e-06
percentage use of password length  68 :  5.577092816279199e-07
percentage use of password length  75 :  7.668502622383899e-07
percentage use of password length  88 :  2.7885464081395995e-07
percentage use of password length  62 :  5.577092816279199e-07
percentage use of password length  79 :  4.1828196122093995e-07
percentage use of password length  74 :  8.365639224418799e-07
percentage use of password length  123 :  1.3942732040697997e-07
percentage use of password length  252 :  6.971366020348999e-08
percentage use of password length  87 :  3.4856830101744997e-07
percentage use of password length  197 :  1.3942732040697997e-07
percentage use of password length  93 :  6.971366020348999e-08
percentage use of password length  89 :  6.971366020348999e-08
percentage use of password length  100 :  6.971366020348999e-08
percentage use of password length  118 :  6.971366020348999e-08
percentage use of password length  195 :  1.3942732040697997e-07
percentage use of password length  184 :  6.971366020348999e-08
percentage use of password length  97 :  6.971366020348999e-08
percentage use of password length  92 :  1.3942732040697997e-07
percentage use of password length  104 :  1.3942732040697997e-07
percentage use of password length  98 :  1.3942732040697997e-07
percentage use of password length  188 :  2.0914098061046997e-07
percentage use of password length  142 :  2.0914098061046997e-07
percentage use of password length  208 :  1.3942732040697997e-07
percentage use of password length  230 :  6.971366020348999e-08
percentage use of password length  228 :  1.3942732040697997e-07
percentage use of password length  90 :  1.3942732040697997e-07
percentage use of password length  76 :  4.1828196122093995e-07
percentage use of password length  82 :  2.7885464081395995e-07
percentage use of password length  103 :  1.3942732040697997e-07
percentage use of password length  189 :  6.971366020348999e-08
percentage use of password length  115 :  6.971366020348999e-08
percentage use of password length  153 :  6.971366020348999e-08
percentage use of password length  138 :  6.971366020348999e-08
percentage use of password length  162 :  6.971366020348999e-08
percentage use of password length  117 :  2.7885464081395995e-07
percentage use of password length  124 :  1.3942732040697997e-07
percentage use of password length  96 :  2.7885464081395995e-07
percentage use of password length  91 :  2.0914098061046997e-07
percentage use of password length  102 :  1.3942732040697997e-07
percentage use of password length  83 :  2.0914098061046997e-07
percentage use of password length  210 :  3.4856830101744997e-07
percentage use of password length  224 :  2.0914098061046997e-07
percentage use of password length  171 :  6.971366020348999e-08
percentage use of password length  126 :  6.971366020348999e-08
percentage use of password length  125 :  2.0914098061046997e-07
percentage use of password length  218 :  1.3942732040697997e-07
percentage use of password length  134 :  1.3942732040697997e-07
percentage use of password length  190 :  1.3942732040697997e-07
percentage use of password length  132 :  6.971366020348999e-08
percentage use of password length  111 :  1.3942732040697997e-07
percentage use of password length  200 :  6.971366020348999e-08
percentage use of password length  192 :  6.971366020348999e-08
percentage use of password length  99 :  6.971366020348999e-08
percentage use of password length  94 :  2.0914098061046997e-07
percentage use of password length  243 :  2.0914098061046997e-07
percentage use of password length  176 :  6.971366020348999e-08
percentage use of password length  148 :  6.971366020348999e-08
percentage use of password length  151 :  6.971366020348999e-08
percentage use of password length  249 :  1.3942732040697997e-07
percentage use of password length  239 :  1.3942732040697997e-07
percentage use of password length  86 :  6.971366020348999e-08
percentage use of password length  170 :  6.971366020348999e-08
percentage use of password length  105 :  6.971366020348999e-08
percentage use of password length  154 :  1.3942732040697997e-07
percentage use of password length  129 :  2.7885464081395995e-07
percentage use of password length  145 :  6.971366020348999e-08
percentage use of password length  106 :  6.971366020348999e-08
percentage use of password length  178 :  1.3942732040697997e-07
percentage use of password length  141 :  6.971366020348999e-08
percentage use of password length  231 :  6.971366020348999e-08
percentage use of password length  219 :  3.4856830101744997e-07
percentage use of password length  221 :  2.7885464081395995e-07
percentage use of password length  257 :  1.3942732040697997e-07
percentage use of password length  262 :  1.3942732040697997e-07
percentage use of password length  258 :  6.971366020348999e-08
percentage use of password length  113 :  1.3942732040697997e-07
percentage use of password length  204 :  6.971366020348999e-08
percentage use of password length  207 :  1.3942732040697997e-07
percentage use of password length  254 :  1.3942732040697997e-07
percentage use of password length  209 :  6.971366020348999e-08
percentage use of password length  241 :  1.3942732040697997e-07
percentage use of password length  220 :  2.0914098061046997e-07
percentage use of password length  217 :  1.3942732040697997e-07
percentage use of password length  172 :  6.971366020348999e-08
percentage use of password length  246 :  4.1828196122093995e-07
percentage use of password length  226 :  1.3942732040697997e-07
percentage use of password length  194 :  1.3942732040697997e-07
percentage use of password length  266 :  6.971366020348999e-08
percentage use of password length  285 :  6.971366020348999e-08
percentage use of password length  244 :  6.971366020348999e-08
percentage use of password length  202 :  6.971366020348999e-08
percentage use of password length  232 :  2.0914098061046997e-07
percentage use of password length  216 :  1.3942732040697997e-07
percentage use of password length  173 :  1.3942732040697997e-07
percentage use of password length  213 :  6.971366020348999e-08
percentage use of password length  174 :  6.971366020348999e-08
percentage use of password length  238 :  1.3942732040697997e-07
percentage use of password length  240 :  6.971366020348999e-08
percentage use of password length  234 :  6.971366020348999e-08
percentage use of password length  225 :  1.3942732040697997e-07
percentage use of password length  237 :  1.3942732040697997e-07
percentage use of password length  233 :  6.971366020348999e-08
percentage use of password length  211 :  6.971366020348999e-08
percentage use of password length  206 :  6.971366020348999e-08
percentage use of password length  203 :  6.971366020348999e-08
percentage use of password length  248 :  6.971366020348999e-08
percentage use of password length  242 :  6.971366020348999e-08
percentage use of password length  245 :  6.971366020348999e-08
percentage use of password length  251 :  6.971366020348999e-08
percentage use of password length  182 :  1.3942732040697997e-07
percentage use of password length  168 :  6.971366020348999e-08
percentage use of password length  175 :  6.971366020348999e-08
percentage use of password length  108 :  2.0914098061046997e-07
percentage use of password length  146 :  2.0914098061046997e-07
percentage use of password length  131 :  6.971366020348999e-08
percentage use of password length  133 :  6.971366020348999e-08
percentage use of password length  198 :  6.971366020348999e-08
