TOTALPASS.TXT----------------------------------------------------------------------


Total occurences of distance  1 :  34341934
Total occurences of distance  9 :  3324753
Total occurences of distance  0 :  11335135
Total occurences of distance  7 :  8335803
Total occurences of distance  5 :  18562440
Total occurences of distance  2 :  32821325
Total occurences of distance  3 :  26580430
Total occurences of distance  6 :  14163188
Total occurences of distance  4 :  19598568
Total occurences of distance  8 :  7552957
Total occurences of distance  10 :  107973
Total occurences of distance  11 :  85485
Total occurences of distance  12 :  1470
Total occurences of distance  13 :  17
Total percentage use of distance  1 :  0.19422909863351745
Total percentage use of distance  9 :  0.018803943259837464
Total percentage use of distance  0 :  0.06410859254284386
Total percentage use of distance  7 :  0.04714514631227731
Total percentage use of distance  5 :  0.10498436080037746
Total percentage use of distance  2 :  0.18562892732563438
Total percentage use of distance  3 :  0.150332038964122
Total percentage use of distance  6 :  0.080103329038401
Total percentage use of distance  4 :  0.11084443284841497
Total percentage use of distance  8 :  0.04271757176307298
Total percentage use of distance  10 :  0.0006106673685517181
Total percentage use of distance  11 :  0.00048348105545500844
Total percentage use of distance  12 :  8.313939890259839e-06
Total percentage use of distance  13 :  9.614760417307297e-08

PASSWORDS.TXT---------------------------------------------------------------
Total occurences of distance  0 :  4479039
Total occurences of distance  9 :  1281672
Total occurences of distance  1 :  14032007
Total occurences of distance  8 :  3050724
Total occurences of distance  4 :  7127031
Total occurences of distance  7 :  2919900
Total occurences of distance  5 :  6492713
Total occurences of distance  3 :  9782700
Total occurences of distance  2 :  11847920
Total occurences of distance  6 :  4878209
Total occurences of distance  10 :  13960
Total occurences of distance  11 :  12745
Total occurences of distance  12 :  52
Total occurences of distance  13 :  1
Total percentage use of distance  0 :  0.06794795459550589
Total percentage use of distance  9 :  0.01944323120703598
Total percentage use of distance  1 :  0.21286846899967177
Total percentage use of distance  8 :  0.046280118533332734
Total percentage use of distance  4 :  0.10811854480141006
Total percentage use of distance  7 :  0.04429549120322856
Total percentage use of distance  5 :  0.09849580861556483
Total percentage use of distance  3 :  0.14840559669640194
Total percentage use of distance  2 :  0.17973541427328188
Total percentage use of distance  6 :  0.07400344664098442
Total percentage use of distance  10 :  0.00021177610781090815
Total percentage use of distance  11 :  0.0001933443047313771
Total percentage use of distance  12 :  7.88850831387337e-07
Total percentage use of distance  13 :  1.5170208295910324e-08

RY.TXT----------------------------------------------------------------------
Total occurences of distance  1 :  20309927
Total occurences of distance  9 :  2043081
Total occurences of distance  0 :  6856096
Total occurences of distance  7 :  5415903
Total occurences of distance  5 :  12069727
Total occurences of distance  2 :  20973405
Total occurences of distance  3 :  16797730
Total occurences of distance  6 :  9284979
Total occurences of distance  4 :  12471537
Total occurences of distance  8 :  4502233
Total occurences of distance  10 :  94013
Total occurences of distance  11 :  72740
Total occurences of distance  12 :  1418
Total occurences of distance  13 :  16
Total percentage use of distance  1 :  0.18314918627948856
Total percentage use of distance  9 :  0.018423927503682498
Total percentage use of distance  0 :  0.061826337605942965
Total percentage use of distance  7 :  0.04883908383415858
Total percentage use of distance  5 :  0.10884138966455037
Total percentage use of distance  2 :  0.18913224352111935
Total percentage use of distance  3 :  0.15147718555771045
Total percentage use of distance  6 :  0.08372931859736076
Total percentage use of distance  4 :  0.11246479877571859
Total percentage use of distance  8 :  0.040599865789308874
Total percentage use of distance  10 :  0.0008477826852697972
Total percentage use of distance  11 :  0.0006559487786425819
Total percentage use of distance  12 :  1.2787123564959872e-05
Total percentage use of distance  13 :  1.4428348169207192e-07

